%YAML 1.1
%TAG !u! tag:unity3d.com,2011:
--- !u!1045 &1
EditorBuildSettings:
  m_ObjectHideFlags: 0
  serializedVersion: 2
  m_Scenes:
  - enabled: 1
    path: Assets/Scenes/Menu.unity
    guid: 3ddf52b9b34edca498d7891893d89e76
  - enabled: 1
    path: Assets/Scenes/Main.unity
    guid: b245e260093485642b54007305d3b377
